{
	"service-name": {
		"type": "entry",
		"default": "example@example.service",
		"description": "Name of service to be monitored."
	},
	"update-interval": {
		"type": "spinbutton",
		"default": 5000,
		"min": 1000,
		"max": 10000000,
		"step": 100,
		"units": "ms",
		"description": "Update interval"
	},
	"icon-ok": {
		"type": "entry",
		"default": "channel-secure",
		"description": "Name of Cinnamon icon used when status is active."
	},
	"icon-nok": {
		"type": "entry",
		"default": "channel-insecure",
		"description": "Name of Cinnamon icon used when status is NOT active."
	}
}